{
  "Servers": {
    "1": {
      "Name": "localdb",
      "Group": "Servers",
      "Host": "postgres",
      "Port": 5432,
      "MaintenanceDB": "postgres",
      "Username": "postgres",
      "Password": "postgres",
      "SSLMode": "prefer"
    }
  }
}
